{
  "annotations": {
    "list": [
      {
        "builtIn": 1,
        "datasource": "-- Grafana --",
        "enable": true,
        "hide": true,
        "iconColor": "rgba(0, 211, 255, 1)",
        "name": "Annotations & Alerts",
        "type": "dashboard"
      }
    ]
  },
  "editable": true,
  "gnetId": null,
  "graphTooltip": 0,
  "links": [],
  "panels": [
    {
      "aliasColors": {},
      "breakPoint": "50%",
      "cacheTimeout": null,
      "combine": {
        "label": "Others",
        "threshold": 0
      },
      "datasource": "Prometheus",
      "fontSize": "80%",
      "format": "short",
      "gridPos": {
        "h": 9,
        "w": 12,
        "x": 0,
        "y": 0
      },
      "id": 8,
      "interval": null,
      "legend": {
        "show": true,
        "values": true
      },
      "legendType": "Under graph",
      "links": [],
      "maxDataPoints": 3,
      "nullPointMode": "connected",
      "pieType": "pie",
      "strokeWidth": 1,
      "targets": [
        {
          "expr": "ExpiredOrders_total",
          "format": "time_series",
          "instant": true,
          "intervalFactor": 1,
          "legendFormat": "Expired orders",
          "refId": "B"
        },
        {
          "expr": "CompletedOrders_total",
          "format": "time_series",
          "instant": true,
          "intervalFactor": 1,
          "legendFormat": "End to End Completed orders",
          "refId": "C"
        },
        {
          "expr": "PlacedOrders_total - ExpiredOrders_total - CompletedOrders_total",
          "format": "time_series",
          "instant": true,
          "intervalFactor": 1,
          "legendFormat": "In-Flight orders",
          "refId": "D"
        }
      ],
      "title": "Total orders",
      "type": "grafana-piechart-panel",
      "valueName": "current"
    },
    {
      "aliasColors": {},
      "bars": true,
      "dashLength": 10,
      "dashes": false,
      "fill": 1,
      "gridPos": {
        "h": 9,
        "w": 12,
        "x": 12,
        "y": 0
      },
      "id": 6,
      "legend": {
        "alignAsTable": false,
        "avg": false,
        "current": false,
        "max": false,
        "min": false,
        "rightSide": false,
        "show": false,
        "sideWidth": null,
        "total": false,
        "values": false
      },
      "lines": false,
      "linewidth": 1,
      "links": [],
      "nullPointMode": "null",
      "percentage": false,
      "pointradius": 5,
      "points": false,
      "renderer": "flot",
      "seriesOverrides": [],
      "spaceLength": 10,
      "stack": true,
      "steppedLine": true,
      "targets": [
        {
          "expr": "TotalPlacedOrders_total",
          "format": "time_series",
          "instant": true,
          "intervalFactor": 1,
          "legendFormat": "Placed orders",
          "refId": "A"
        },
        {
          "expr": "TotalInvoicedOrders_total",
          "format": "time_series",
          "instant": true,
          "intervalFactor": 1,
          "legendFormat": "Invoiced orders",
          "refId": "B"
        },
        {
          "expr": "TotalShippedOrders_total",
          "format": "time_series",
          "instant": true,
          "intervalFactor": 1,
          "legendFormat": "Shipped orders",
          "refId": "C"
        },
        {
          "expr": "TotalOrderStockReservations_total",
          "format": "time_series",
          "instant": true,
          "intervalFactor": 1,
          "legendFormat": "Stock reserved",
          "refId": "D"
        },
        {
          "expr": "TotalCompletedOrders_total",
          "format": "time_series",
          "instant": true,
          "intervalFactor": 1,
          "legendFormat": "Completed orders",
          "refId": "E"
        }
      ],
      "thresholds": [],
      "timeFrom": null,
      "timeRegions": [],
      "timeShift": null,
      "title": "Order workflow steps",
      "tooltip": {
        "shared": true,
        "sort": 0,
        "value_type": "individual"
      },
      "type": "graph",
      "xaxis": {
        "buckets": null,
        "mode": "series",
        "name": null,
        "show": true,
        "values": [
          "total"
        ]
      },
      "yaxes": [
        {
          "format": "short",
          "label": "Total count",
          "logBase": 1,
          "max": null,
          "min": null,
          "show": true
        },
        {
          "format": "short",
          "label": "",
          "logBase": 1,
          "max": null,
          "min": null,
          "show": true
        }
      ],
      "yaxis": {
        "align": false,
        "alignLevel": null
      }
    },
    {
      "aliasColors": {},
      "bars": true,
      "dashLength": 10,
      "dashes": false,
      "description": "Processing duration for every workflow step",
      "fill": 1,
      "gridPos": {
        "h": 9,
        "w": 17,
        "x": 4,
        "y": 9
      },
      "id": 4,
      "legend": {
        "alignAsTable": true,
        "avg": true,
        "current": false,
        "max": true,
        "min": true,
        "rightSide": true,
        "show": true,
        "total": false,
        "values": true
      },
      "lines": false,
      "linewidth": 1,
      "links": [],
      "nullPointMode": "null",
      "percentage": false,
      "pointradius": 5,
      "points": false,
      "renderer": "flot",
      "seriesOverrides": [],
      "spaceLength": 10,
      "stack": false,
      "steppedLine": false,
      "targets": [
        {
          "expr": "OrderStockReservationStepDurationTimer_seconds_sum / OrderStockReservationStepDurationTimer_seconds_count",
          "format": "time_series",
          "instant": false,
          "interval": "",
          "intervalFactor": 1,
          "legendFormat": "Stock reservation",
          "refId": "B"
        },
        {
          "expr": "OrderShippingDurationTimer_seconds_sum / OrderShippingDurationTimer_seconds_count",
          "format": "time_series",
          "instant": false,
          "interval": "",
          "intervalFactor": 1,
          "legendFormat": "Order shipping",
          "refId": "C"
        },
        {
          "expr": "OrderPaymentDurationTimer_seconds_sum / OrderPaymentDurationTimer_seconds_count",
          "format": "time_series",
          "instant": false,
          "intervalFactor": 1,
          "legendFormat": "Payment invoice issued",
          "refId": "D"
        },
        {
          "expr": "EndToEndOrderProcessingDuration_seconds_sum / EndToEndOrderProcessingDuration_seconds_count",
          "format": "time_series",
          "intervalFactor": 1,
          "legendFormat": "End to end order processing",
          "refId": "A"
        }
      ],
      "thresholds": [],
      "timeFrom": null,
      "timeRegions": [],
      "timeShift": null,
      "title": "Workflow step processing durations",
      "tooltip": {
        "shared": false,
        "sort": 0,
        "value_type": "individual"
      },
      "type": "graph",
      "xaxis": {
        "buckets": null,
        "mode": "series",
        "name": null,
        "show": true,
        "values": [
          "avg"
        ]
      },
      "yaxes": [
        {
          "format": "short",
          "label": "Milli-seconds",
          "logBase": 1,
          "max": null,
          "min": null,
          "show": true
        },
        {
          "format": "short",
          "label": "",
          "logBase": 1,
          "max": null,
          "min": null,
          "show": true
        }
      ],
      "yaxis": {
        "align": false,
        "alignLevel": null
      }
    }
  ],
  "schemaVersion": 16,
  "style": "dark",
  "tags": [],
  "templating": {
    "list": []
  },
  "time": {
    "from": "now-6h",
    "to": "now"
  },
  "timepicker": {
    "refresh_intervals": [
      "10s"
    ],
    "time_options": [
      "5m",
      "15m",
      "1h",
      "6h",
      "12h",
      "24h",
      "2d",
      "7d",
      "30d"
    ]
  },
  "timezone": "",
  "title": "Orders workflow",
  "uid": "PH44JyaZz",
  "version": 1
}